AD +376
AE +971
AF +93
AG +1-268
AL +355
AM +374
AO +244
AR +54
AS +1-684
AT +43
AU +61
AW +297
AZ +994
BA +387
BB +1-246
BD +880
BE +32
BF +226
BG +359
BJ +229
BM +1-441
BO +591
BR +55
BS +1-242
BT +975
BW +267
BY +375
BZ +501
CA +1
CF +236
CH +41
CK +682
CL +56
CM +237
CO +57
CR +506
CV +238
CY +357
CZ +420
DE +49
DJ +253
DK +45
DM +1-767
DO +1-809, 1-829, 1-849
DZ +213
EC +593
EG +20
ES +34
ET +251
FI +358
FJ +679
FO +298
FR +33
GA +241
GB +44
GD +1-473
GE +995
GG +44-1481
GH +233
GI +350
GL +299
GM +220
GQ +240
GR +30
GT +502
GY +592
HN +504
HR +385
HT +509
HU +36
ID +62
IE +353
IL +972
IM +44-1624
IN +246
IQ +964
IT +39
JE +44-1534
JM +1-876
JO +962
JP +81
KE +254
KG +996
KH +855
KM +269
KN +1-869
KW +965
KY +1-345
KZ +7
LB +961
LC +1-758
LI +423
LK +94
LS +266
LT +370
LU +352
LV +371
LY +218
MA +212
MD +373
ME +382
MG +261
MM +95
MN +976
MS +1-664
MT +356
MU +230
MW +265
MX +52
MY +60
MZ +258
NA +264
NC +687
NE +227
NG +234
NI +505
NL +31
NO +47
NP +977
NZ +64
OM +968
PA +507
PE +51
PG +675
PH +63
PK +92
PL +48
PM +508
PR +1-787, 1-939
PT +351
PY +595
QA +974
RO +40
RS +381
RW +250
SA +966
SC +248
SE +46
SG +65
SH +290
SI +386
SK +421
SL +232
SN +221
SR +597
ST +239
SV +503
SZ +268
TC +1-649
TG +228
TH +66
TM +993
TO +676
TR +90
TT +1-868
UA +380
UG +256
UY +598
UZ +998
VG +1-284
WS +1-684
YE +967
YT +262
ZA +27
ZM +260
ZW +263
